Tidy model summaries for risks models — tidy.risks • risks
…
#> Loading required package: quantreg
#> Loading required package: SparseM
#> 
#> Attaching package: ‘SparseM’
#> The following object is masked from ‘package:base’:
#> 
#>     backsolve
#> 
#> Attaching package: ‘turboEM’
#> The following objects are masked from ‘package:numDeriv’:
#> 
#>     grad, hessian
tidy(fit_rr)

#> # A tibble: 23 x 8
#>    term        estimate std.error statistic  p.value conf.low conf.high model   
#>    <chr>          <dbl>     <dbl>     <dbl>    <dbl>    <dbl>     <dbl> <chr>   
#>  1 (Intercept)   -2.37      0.385     -6.14 8.34e-10  -3.07      -1.66  robpois…
#>  2 stageStage…    0.925     0.426      2.17 3.01e- 2   0.154      1.70  robpois…
#>  3 stageStage…    1.78      0.447      3.97 7.10e- 5   1.02       2.53  robpois…
#>  4 receptorLow    0.489     0.288      1.70 8.89e- 2   0.0718     0.906 robpois…
#>  5 (Intercept)   -2.35      0.360     -6.53 6.55e-11  -3.06      -1.65  glm_sta…
#>  6 stageStage…    0.931     0.393      2.37 1.78e- 2   0.161      1.70  glm_sta…
#>  7 stageStage…    1.77      0.385      4.60 4.33e- 6   1.01       2.52  glm_sta…
#>  8 receptorLow    0.444     0.197      2.25 2.42e- 2   0.0578     0.829 glm_sta…
#>  9 (Intercept)   -2.35      0.360     -6.53 6.55e-11  -3.06      -1.65  logbin  
#> 10 stageStage…    0.931     0.393      2.37 1.78e- 2   0.161      1.70  logbin  
#> # … with 13 more rows
…
